alabaster==0.7.11
Babel==2.6.0
certifi==2018.8.24
chardet==3.0.4
colorama==0.3.9
docutils==0.14
idna==2.7
imagesize==1.1.0
isodate==0.6.0
Jinja2==2.10
MarkupSafe==1.0
packaging==17.1
progressbar2==3.38.0
Pygments==2.2.0
pyparsing==2.2.0
PyQt5==5.11.2
PyQt5-sip==4.19.12
python-utils==2.3.0
pytz==2018.5
requests==2.19.1
six==1.11.0
snowballstemmer==1.2.1
Sphinx==1.7.9
sphinx-rtd-theme==0.4.1
sphinxcontrib-websupport==1.1.0
urllib3==1.23
xnat==0.3.10
